…
**Hint:** To get started, see slides 34 to 44 in the class on getting
things into the right order:
<https://wilkelab.org/DSC385/slides/getting-things-in-order.html#34>

``` r
BA_degrees <- read_csv("https://wilkelab.org/SDS375/datasets/BA_degrees.csv")
BA_degrees
```

    ## # A tibble: 594 × 4
    ##    field                                              year  count     perc
    ##    <chr>                                             <dbl>  <dbl>    <dbl>
    ##  1 Agriculture and natural resources                  1971  12672 0.0151  
    ##  2 Architecture and related services                  1971   5570 0.00663 
    ##  3 Area, ethnic, cultural, gender, and group studies  1971   2579 0.00307 
    ##  4 Biological and biomedical sciences                 1971  35705 0.0425  
    ##  5 Business                                           1971 115396 0.137   
    ##  6 Communication, journalism, and related programs    1971  10324 0.0123  
    ##  7 Communications technologies                        1971    478 0.000569
    ##  8 Computer and information sciences                  1971   2388 0.00284 
    ##  9 Education                                          1971 176307 0.210   
    ## 10 Engineering                                        1971  45034 0.0536  
    ## # … with 584 more rows
…
