Students GPA against 3 explanatory variables
================

This is the dataset we will be working with:

``` r
food <- readr::read_csv(
  "https://wilkelab.org/DSC385/datasets/food_coded.csv",
  na = c("Unknown", "nan", "Personal"))
food
```

    ## # A tibble: 125 × 61
    ##    GPA   Gender breakfast calor…¹ calor…² calor…³ coffee comfo…⁴ comfo…⁵ comfo…⁶
    ##    <chr>  <dbl>     <dbl>   <dbl>   <dbl>   <dbl>  <dbl> <chr>   <chr>     <dbl>
    ##  1 2.4        2         1     430      NA     315      1 none    we don…       9
    ##  2 3.654      1         1     610       3     420      2 chocol… Stress…       1
    ##  3 3.3        1         1     720       4     420      2 frozen… stress…       1
    ##  4 3.2        1         1     430       3     420      2 Pizza,… Boredom       2
    ##  5 3.5        1         1     720       2     420      2 Ice cr… Stress…       1
    ##  6 2.25       1         1     610       3     980      2 Candy,… None, …       4
    ##  7 3.8        2         1     610       3     420      2 Chocol… stress…       1
    ##  8 3.3        1         1     720       3     420      1 Ice cr… I eat …       1
    ##  9 3.3        1         1     430      NA     420      1 Donuts… Boredom       2
    ## 10 3.3        1         1     430       3     315      2 Mac an… Stress…       1
    ## # … with 115 more rows, 51 more variables: cook <dbl>,
    ## #   comfort_food_reasons_coded...12 <dbl>, cuisine <dbl>, diet_current <chr>,
    ## #   diet_current_coded <dbl>, drink <dbl>, eating_changes <chr>,
    ## #   eating_changes_coded <dbl>, eating_changes_coded1 <dbl>, eating_out <dbl>,
    ## #   employment <dbl>, ethnic_food <dbl>, exercise <dbl>,
    ## #   father_education <dbl>, father_profession <chr>, fav_cuisine <chr>,
    ## #   fav_cuisine_coded <dbl>, fav_food <dbl>, food_childhood <chr>, …
…
