…
olympic_gymnasts <- olympics %>% 
  filter(!is.na(age)) %>%             # only keep athletes with known age
  filter(sport == "Gymnastics") %>%   # keep only gymnasts
  mutate(
    medalist = case_when(             # add column for success in medaling
      is.na(medal) ~ FALSE,           # NA values go to FALSE
      !is.na(medal) ~ TRUE            # non-NA values (Gold, Silver, Bronze) go to TRUE
    )
  )
olympic_gymnasts
```

    ## # A tibble: 25,528 × 16
    ##       id name     sex     age height weight team  noc   games  year season city 
    ##    <dbl> <chr>    <chr> <dbl>  <dbl>  <dbl> <chr> <chr> <chr> <dbl> <chr>  <chr>
    ##  1    17 Paavo J… M        28    175     64 Finl… FIN   1948…  1948 Summer Lond…
    ##  2    17 Paavo J… M        28    175     64 Finl… FIN   1948…  1948 Summer Lond…
    ##  3    17 Paavo J… M        28    175     64 Finl… FIN   1948…  1948 Summer Lond…
    ##  4    17 Paavo J… M        28    175     64 Finl… FIN   1948…  1948 Summer Lond…
    ##  5    17 Paavo J… M        28    175     64 Finl… FIN   1948…  1948 Summer Lond…
    ##  6    17 Paavo J… M        28    175     64 Finl… FIN   1948…  1948 Summer Lond…
    ##  7    17 Paavo J… M        28    175     64 Finl… FIN   1948…  1948 Summer Lond…
    ##  8    17 Paavo J… M        28    175     64 Finl… FIN   1948…  1948 Summer Lond…
    ##  9    17 Paavo J… M        32    175     64 Finl… FIN   1952…  1952 Summer Hels…
    ## 10    17 Paavo J… M        32    175     64 Finl… FIN   1952…  1952 Summer Hels…
    ## # … with 25,518 more rows, and 4 more variables: sport <chr>, event <chr>,
    ## #   medal <chr>, medalist <lgl>
…
