…
## BOXPLOTS vs RIDGELINES CHARTS

**Viz 2:** Visualize the distribution of each car’s city fuel economy by
class and type of drive train with (i) boxplots and (ii) ridgelines. In
both cases, put city mpg on the x axis and class on the y axis. Use
color to indicate the car’s drive train.

The boxplot ggplot generates will have a problem. Explain what the
problem is. (You do not have to solve it.)

``` r
mpg
```

    ## # A tibble: 234 × 11
    ##    manufacturer model      displ  year   cyl trans drv     cty   hwy fl    class
    ##    <chr>        <chr>      <dbl> <int> <int> <chr> <chr> <int> <int> <chr> <chr>
    ##  1 audi         a4           1.8  1999     4 auto… f        18    29 p     comp…
    ##  2 audi         a4           1.8  1999     4 manu… f        21    29 p     comp…
    ##  3 audi         a4           2    2008     4 manu… f        20    31 p     comp…
    ##  4 audi         a4           2    2008     4 auto… f        21    30 p     comp…
    ##  5 audi         a4           2.8  1999     6 auto… f        16    26 p     comp…
    ##  6 audi         a4           2.8  1999     6 manu… f        18    26 p     comp…
    ##  7 audi         a4           3.1  2008     6 auto… f        18    27 p     comp…
    ##  8 audi         a4 quattro   1.8  1999     4 manu… 4        18    26 p     comp…
    ##  9 audi         a4 quattro   1.8  1999     4 auto… 4        16    25 p     comp…
    ## 10 audi         a4 quattro   2    2008     4 manu… 4        20    28 p     comp…
    ## # … with 224 more rows
…
